{
  "exp_name": "shuffleseg_train",
  "num_classes" : 22,
  "num_channels" : 3,
  "num_groups" : 3,
  "bias" : 0.0,
  "l2_strength" : 0.0005,
  "use_batchnorm" : 1,
  "learning_rate" : 0.0001,
  "batch_size" : 1,
  "mode" : "test",
  "checkpoint_file": "../experiments/shuffleseg_train_29Sept/checkpoint/best/model-40200",
  "input_tensor_name": "image_tensor",
  "output_tensor_name": "output_mask",
  "output_graph_name": "shuffleseg_40200.pb"
}
