{
  "exp_name" : "shuffleseg_predict",
  "mode" : "test",
  "num_channels" : 3,
  "num_classes" : 22,
  "pretrained_path" : "./shufflenet_weights.pkl",
  "bias" : 0.0,
  "l2_strength" : 0.0005,
  "use_batchnorm" : 1,
  "num_groups" : 3,
  "checkpoint_dir": "../experiments/shuffleseg_train_27Dec/checkpoint/best/",
  "images" : ["01.jpg", "02.jpg"]
}
